[
    {
        "completed": "m1",
        "targets": {
            "m2": 20,
            "m5": 10,
            "m11": 10,
            "m14": 10
        }
    },
    {
        "completed": "m2",
        "targets": {
            "m3": 20,
            "m11": 10,
            "m14": 10
        }
    },
    {
        "completed": "m4",
        "targets": {
            "m5": 20,
            "m3": 10
        }
    },
    {
        "completed": "m5",
        "targets": {
            "m6": 20
        }
    },
    {
        "completed": "m7",
        "targets": {
            "m8": 20,
            "m6": 10
        }
    },
    {
        "completed": "m8",
        "targets": {
            "m9": 20
        }
    },
    {
        "completed": "m10",
        "targets": {
            "m11": 20
        }
    },
    {
        "completed": "m11",
        "targets": {
            "m12": 20
        }
    },
    {
        "completed": "m13",
        "targets": {
            "m14": 20
        }
    },
    {
        "completed": "m14",
        "targets": {
            "m15": 20
        }
    },
    {
        "completed": "m16",
        "targets": {
            "m17": 20
        }
    },
    {
        "completed": "m17",
        "targets": {
            "m18": 20
        }
    },
    {
        "completed": "m19",
        "targets": {
            "m20": 20
        }
    }
]
